instructionCount,13228
NONE,0
ALU,3185
SHIFT,3673
LOAD,2973
STORE,1847
BRANCH,661
JUMP,835
OTHER,54
NONE,0
sll,3647
srl,0
sra,26
sllv,0
srlv,0
srav,0
jr,305
add,0
addu,1310
sub,0
subu,0
and,0
or,0
xor,0
nor,0
slt,147
sltu,0
j,225
jal,305
jalr,0
mult,0
multu,0
div,0
divu,0
mfhi,0
mthi,0
mflo,0
mtlo,0
beq,305
bne,304
bgez,0
bgtz,52
blez,0
bltz,0
addi,0
addiu,1203
slti,79
sltiu,0
andi,52
ori,54
xori,0
lui,340
lb,807
lh,0
lw,1982
lbu,184
lhu,0
sb,512
sh,0
sw,1335
syscall,54
break,0
loadStalls, 0
controlStalls, 0
iCacheMissRate, -nan
dCacheMissRate, -nan
