instructionCount,109
NONE,0
ALU,31
SHIFT,19
LOAD,20
STORE,17
BRANCH,0
JUMP,16
OTHER,6
NONE,0
sll,17
srl,0
sra,0
sllv,2
srlv,0
srav,0
jr,8
add,2
addu,0
sub,0
subu,0
and,0
or,0
xor,0
nor,0
slt,0
sltu,0
j,0
jal,8
jalr,0
mult,0
multu,0
div,0
divu,0
mfhi,0
mthi,0
mflo,0
mtlo,0
beq,0
bne,0
bgez,0
bgtz,0
blez,0
bltz,0
addi,17
addiu,6
slti,0
sltiu,0
andi,0
ori,6
xori,0
lui,0
lb,0
lh,0
lw,20
lbu,0
lhu,0
sb,0
sh,0
sw,17
syscall,6
break,0
loadStalls, 0
controlStalls, 0
iCacheMissRate, -nan
dCacheMissRate, -nan
